%!PS-Adobe-2.0 EPSF-1.2
%%Creator: MATLAB, The MathWorks, Inc. Version 8.3.0.532 (R2014a). Operating System: Linux 2.6.32-504.3.3.el6.x86_64 #1 SMP Wed Dec 17 01:55:02 UTC 2014 x86_64.
%%Title: ./probExtinctionVec7e-05.eps
%%CreationDate: 10/23/2015  06:02:38
%%DocumentNeededFonts: Helvetica
%%DocumentProcessColors: Cyan Magenta Yellow Black
%%Extensions: CMYK
%%Pages: 1
%%BoundingBox:    18   180   594   616
%%EndComments

%%BeginProlog
% MathWorks dictionary
/MathWorks 160 dict begin
% definition operators
/bdef {bind def} bind def
/ldef {load def} bind def
/xdef {exch def} bdef
/xstore {exch store} bdef
% operator abbreviations
/c  /clip ldef
/cc /concat ldef
/cp /closepath ldef
/gr /grestore ldef
/gs /gsave ldef
/mt /moveto ldef
/np /newpath ldef
/cm /currentmatrix ldef
/sm /setmatrix ldef
/rm /rmoveto ldef
/rl /rlineto ldef
/s {show newpath} bdef
/sc {setcmykcolor} bdef
/sr /setrgbcolor ldef
/sg /setgray ldef
/w /setlinewidth ldef
/j /setlinejoin ldef
/cap /setlinecap ldef
/rc {rectclip} bdef
/rf {rectfill} bdef
% page state control
/pgsv () def
/bpage {/pgsv save def} bdef
/epage {pgsv restore} bdef
/bplot /gsave ldef
/eplot {stroke grestore} bdef
% orientation switch
/portraitMode 0 def /landscapeMode 1 def /rotateMode 2 def
% coordinate system mappings
/dpi2point 0 def
% font control
/FontSize 0 def
/FMS {/FontSize xstore findfont [FontSize 0 0 FontSize neg 0 0]
  makefont setfont} bdef
/reencode {exch dup where {pop load} {pop StandardEncoding} ifelse
  exch dup 3 1 roll findfont dup length dict begin
  { 1 index /FID ne {def}{pop pop} ifelse } forall
  /Encoding exch def currentdict end definefont pop} bdef
/isroman {findfont /CharStrings get /Agrave known} bdef
/FMSR {3 1 roll 1 index dup isroman {reencode} {pop pop} ifelse
  exch FMS} bdef
/csm {1 dpi2point div -1 dpi2point div scale neg translate
 dup landscapeMode eq {pop -90 rotate}
  {rotateMode eq {90 rotate} if} ifelse} bdef
% line types: solid, dotted, dashed, dotdash
/SO { [] 0 setdash } bdef
/DO { [.5 dpi2point mul 4 dpi2point mul] 0 setdash } bdef
/DA { [6 dpi2point mul] 0 setdash } bdef
/DD { [.5 dpi2point mul 4 dpi2point mul 6 dpi2point mul 4
  dpi2point mul] 0 setdash } bdef
% macros for lines and objects
/L {lineto stroke} bdef
/MP {3 1 roll moveto 1 sub {rlineto} repeat} bdef
/AP {{rlineto} repeat} bdef
/PDlw -1 def
/W {/PDlw currentlinewidth def setlinewidth} def
/PP {closepath eofill} bdef
/DP {closepath stroke} bdef
/MR {4 -2 roll moveto dup  0 exch rlineto exch 0 rlineto
  neg 0 exch rlineto closepath} bdef
/FR {MR stroke} bdef
/PR {MR fill} bdef
/L1i {{currentfile picstr readhexstring pop} image} bdef
/tMatrix matrix def
/MakeOval {newpath tMatrix currentmatrix pop translate scale
0 0 1 0 360 arc tMatrix setmatrix} bdef
/FO {MakeOval stroke} bdef
/PO {MakeOval fill} bdef
/PD {currentlinewidth 2 div 0 360 arc fill
   PDlw -1 eq not {PDlw w /PDlw -1 def} if} def
/FA {newpath tMatrix currentmatrix pop translate scale
  0 0 1 5 -2 roll arc tMatrix setmatrix stroke} bdef
/PA {newpath tMatrix currentmatrix pop	translate 0 0 moveto scale
  0 0 1 5 -2 roll arc closepath tMatrix setmatrix fill} bdef
/FAn {newpath tMatrix currentmatrix pop translate scale
  0 0 1 5 -2 roll arcn tMatrix setmatrix stroke} bdef
/PAn {newpath tMatrix currentmatrix pop translate 0 0 moveto scale
  0 0 1 5 -2 roll arcn closepath tMatrix setmatrix fill} bdef
/vradius 0 def /hradius 0 def /lry 0 def
/lrx 0 def /uly 0 def /ulx 0 def /rad 0 def
/MRR {/vradius xdef /hradius xdef /lry xdef /lrx xdef /uly xdef
  /ulx xdef newpath tMatrix currentmatrix pop ulx hradius add uly
  vradius add translate hradius vradius scale 0 0 1 180 270 arc 
  tMatrix setmatrix lrx hradius sub uly vradius add translate
  hradius vradius scale 0 0 1 270 360 arc tMatrix setmatrix
  lrx hradius sub lry vradius sub translate hradius vradius scale
  0 0 1 0 90 arc tMatrix setmatrix ulx hradius add lry vradius sub
  translate hradius vradius scale 0 0 1 90 180 arc tMatrix setmatrix
  closepath} bdef
/FRR {MRR stroke } bdef
/PRR {MRR fill } bdef
/MlrRR {/lry xdef /lrx xdef /uly xdef /ulx xdef /rad lry uly sub 2 div def
  newpath tMatrix currentmatrix pop ulx rad add uly rad add translate
  rad rad scale 0 0 1 90 270 arc tMatrix setmatrix lrx rad sub lry rad
  sub translate rad rad scale 0 0 1 270 90 arc tMatrix setmatrix
  closepath} bdef
/FlrRR {MlrRR stroke } bdef
/PlrRR {MlrRR fill } bdef
/MtbRR {/lry xdef /lrx xdef /uly xdef /ulx xdef /rad lrx ulx sub 2 div def
  newpath tMatrix currentmatrix pop ulx rad add uly rad add translate
  rad rad scale 0 0 1 180 360 arc tMatrix setmatrix lrx rad sub lry rad
  sub translate rad rad scale 0 0 1 0 180 arc tMatrix setmatrix
  closepath} bdef
/FtbRR {MtbRR stroke } bdef
/PtbRR {MtbRR fill } bdef
/stri 6 array def /dtri 6 array def
/smat 6 array def /dmat 6 array def
/tmat1 6 array def /tmat2 6 array def /dif 3 array def
/asub {/ind2 exch def /ind1 exch def dup dup
  ind1 get exch ind2 get sub exch } bdef
/tri_to_matrix {
  2 0 asub 3 1 asub 4 0 asub 5 1 asub
  dup 0 get exch 1 get 7 -1 roll astore } bdef
/compute_transform {
  dmat dtri tri_to_matrix tmat1 invertmatrix 
  smat stri tri_to_matrix tmat2 concatmatrix } bdef
/ds {stri astore pop} bdef
/dt {dtri astore pop} bdef
/db {2 copy /cols xdef /rows xdef mul dup 3 mul string
  currentfile exch readhexstring pop
  dup 0 3 index getinterval /rbmap xdef
  dup 2 index dup getinterval /gbmap xdef
  1 index dup 2 mul exch getinterval /bbmap xdef pop pop}bdef
/it {gs np dtri aload pop moveto lineto lineto cp c
  cols rows 8 compute_transform 
  rbmap gbmap bbmap true 3 colorimage gr}bdef
/il {newpath moveto lineto stroke}bdef
currentdict end def
%%EndProlog

%%BeginSetup
MathWorks begin

0 cap

end
%%EndSetup

%%Page: 1 1
%%BeginPageSetup
%%PageBoundingBox:    18   180   594   616
MathWorks begin
bpage
%%EndPageSetup

%%BeginObject: obj1
bplot

/dpi2point 12 def
portraitMode 0216 7344 csm

    0   -48  6923  5231 MR c np
76 dict begin %Colortable dictionary
/c0 { 0.000000 0.000000 0.000000 sr} bdef
/c1 { 1.000000 1.000000 1.000000 sr} bdef
/c2 { 0.900000 0.000000 0.000000 sr} bdef
/c3 { 0.000000 0.820000 0.000000 sr} bdef
/c4 { 0.000000 0.000000 0.800000 sr} bdef
/c5 { 0.910000 0.820000 0.320000 sr} bdef
/c6 { 1.000000 0.260000 0.820000 sr} bdef
/c7 { 0.000000 0.820000 0.820000 sr} bdef
c0
1 j
1 sg
   0    0 6913 5186 PR
6 w
0 3638 5192 0 0 -3638 1063 4261 4 MP
PP
-5192 0 0 3638 5192 0 0 -3638 1063 4261 5 MP stroke
4 w
DO
SO
6 w
0 sg
1063 4261 mt 6255 4261 L
1063 4261 mt 1063  623 L
1063 4261 mt 1063 4312 L
%%IncludeResource: font Helvetica
/Helvetica /ISOLatin1Encoding 360 FMSR

 963 4682 mt 
(0) s
2299 4261 mt 2299 4312 L
2199 4682 mt 
(2) s
3535 4261 mt 3535 4312 L
3435 4682 mt 
(4) s
4771 4261 mt 4771 4312 L
4671 4682 mt 
(6) s
6007 4261 mt 6007 4312 L
5907 4682 mt 
(8) s
5302 5182 mt 
(x 10) s
%%IncludeResource: font Helvetica
/Helvetica /ISOLatin1Encoding 240 FMSR

5982 4959 mt 
(-3) s
1063 4261 mt 1011 4261 L
%%IncludeResource: font Helvetica
/Helvetica /ISOLatin1Encoding 360 FMSR

 476 4395 mt 
(0.5) s
1063 3533 mt 1011 3533 L
 476 3667 mt 
(0.6) s
1063 2805 mt 1011 2805 L
 476 2939 mt 
(0.7) s
1063 2078 mt 1011 2078 L
 476 2212 mt 
(0.8) s
1063 1350 mt 1011 1350 L
 476 1484 mt 
(0.9) s
/c8 { 0.000000 0.000000 1.000000 sr} bdef
c8
1070  896 mt 1142  896 L
1106  860 mt 1106  932 L
1113  986 mt 1185  986 L
1149  950 mt 1149 1022 L
1156 1045 mt 1228 1045 L
1192 1009 mt 1192 1081 L
1200 1047 mt 1272 1047 L
1236 1011 mt 1236 1083 L
1243 1093 mt 1315 1093 L
1279 1057 mt 1279 1129 L
1286 1094 mt 1358 1094 L
1322 1058 mt 1322 1130 L
1373 1109 mt 1445 1109 L
1409 1073 mt 1409 1145 L
1459 1126 mt 1531 1126 L
1495 1090 mt 1495 1162 L
1546 1107 mt 1618 1107 L
1582 1071 mt 1582 1143 L
1676 1138 mt 1748 1138 L
1712 1102 mt 1712 1174 L
1892 1152 mt 1964 1152 L
1928 1116 mt 1928 1188 L
2325 1191 mt 2397 1191 L
2361 1155 mt 2361 1227 L
2757 1143 mt 2829 1143 L
2793 1107 mt 2793 1179 L
3623 1159 mt 3695 1159 L
3659 1123 mt 3659 1195 L
6219 1110 mt 6291 1110 L
6255 1074 mt 6255 1146 L
1081  871 mt 1131  921 L
1131  871 mt 1081  921 L
1124  961 mt 1174 1011 L
1174  961 mt 1124 1011 L
1167 1020 mt 1217 1070 L
1217 1020 mt 1167 1070 L
1211 1022 mt 1261 1072 L
1261 1022 mt 1211 1072 L
1254 1068 mt 1304 1118 L
1304 1068 mt 1254 1118 L
1297 1069 mt 1347 1119 L
1347 1069 mt 1297 1119 L
1384 1084 mt 1434 1134 L
1434 1084 mt 1384 1134 L
1470 1101 mt 1520 1151 L
1520 1101 mt 1470 1151 L
1557 1082 mt 1607 1132 L
1607 1082 mt 1557 1132 L
1687 1113 mt 1737 1163 L
1737 1113 mt 1687 1163 L
1903 1127 mt 1953 1177 L
1953 1127 mt 1903 1177 L
2336 1166 mt 2386 1216 L
2386 1166 mt 2336 1216 L
2768 1118 mt 2818 1168 L
2818 1118 mt 2768 1168 L
3634 1134 mt 3684 1184 L
3684 1134 mt 3634 1184 L
6230 1085 mt 6280 1135 L
6280 1085 mt 6230 1135 L
0 sg
 466 5002 mt 
(Shedding length in each shedding event) s
 340 4314 mt  -90 rotate
(Probability of Extinction) s
90 rotate
1697  335 mt 
(Shedding length =7e-05) s

end %%Color Dict

eplot
%%EndObject

epage
end

showpage

%%Trailer
%%EOF
