%!PS-Adobe-2.0 EPSF-1.2
%%Creator: MATLAB, The MathWorks, Inc. Version 8.3.0.532 (R2014a). Operating System: Linux 2.6.32-504.3.3.el6.x86_64 #1 SMP Wed Dec 17 01:55:02 UTC 2014 x86_64.
%%Title: ./probExtinctionVec0.0003.eps
%%CreationDate: 10/21/2015  21:26:29
%%DocumentNeededFonts: Helvetica
%%DocumentProcessColors: Cyan Magenta Yellow Black
%%Extensions: CMYK
%%Pages: 1
%%BoundingBox:    18   179   594   616
%%EndComments

%%BeginProlog
% MathWorks dictionary
/MathWorks 160 dict begin
% definition operators
/bdef {bind def} bind def
/ldef {load def} bind def
/xdef {exch def} bdef
/xstore {exch store} bdef
% operator abbreviations
/c  /clip ldef
/cc /concat ldef
/cp /closepath ldef
/gr /grestore ldef
/gs /gsave ldef
/mt /moveto ldef
/np /newpath ldef
/cm /currentmatrix ldef
/sm /setmatrix ldef
/rm /rmoveto ldef
/rl /rlineto ldef
/s {show newpath} bdef
/sc {setcmykcolor} bdef
/sr /setrgbcolor ldef
/sg /setgray ldef
/w /setlinewidth ldef
/j /setlinejoin ldef
/cap /setlinecap ldef
/rc {rectclip} bdef
/rf {rectfill} bdef
% page state control
/pgsv () def
/bpage {/pgsv save def} bdef
/epage {pgsv restore} bdef
/bplot /gsave ldef
/eplot {stroke grestore} bdef
% orientation switch
/portraitMode 0 def /landscapeMode 1 def /rotateMode 2 def
% coordinate system mappings
/dpi2point 0 def
% font control
/FontSize 0 def
/FMS {/FontSize xstore findfont [FontSize 0 0 FontSize neg 0 0]
  makefont setfont} bdef
/reencode {exch dup where {pop load} {pop StandardEncoding} ifelse
  exch dup 3 1 roll findfont dup length dict begin
  { 1 index /FID ne {def}{pop pop} ifelse } forall
  /Encoding exch def currentdict end definefont pop} bdef
/isroman {findfont /CharStrings get /Agrave known} bdef
/FMSR {3 1 roll 1 index dup isroman {reencode} {pop pop} ifelse
  exch FMS} bdef
/csm {1 dpi2point div -1 dpi2point div scale neg translate
 dup landscapeMode eq {pop -90 rotate}
  {rotateMode eq {90 rotate} if} ifelse} bdef
% line types: solid, dotted, dashed, dotdash
/SO { [] 0 setdash } bdef
/DO { [.5 dpi2point mul 4 dpi2point mul] 0 setdash } bdef
/DA { [6 dpi2point mul] 0 setdash } bdef
/DD { [.5 dpi2point mul 4 dpi2point mul 6 dpi2point mul 4
  dpi2point mul] 0 setdash } bdef
% macros for lines and objects
/L {lineto stroke} bdef
/MP {3 1 roll moveto 1 sub {rlineto} repeat} bdef
/AP {{rlineto} repeat} bdef
/PDlw -1 def
/W {/PDlw currentlinewidth def setlinewidth} def
/PP {closepath eofill} bdef
/DP {closepath stroke} bdef
/MR {4 -2 roll moveto dup  0 exch rlineto exch 0 rlineto
  neg 0 exch rlineto closepath} bdef
/FR {MR stroke} bdef
/PR {MR fill} bdef
/L1i {{currentfile picstr readhexstring pop} image} bdef
/tMatrix matrix def
/MakeOval {newpath tMatrix currentmatrix pop translate scale
0 0 1 0 360 arc tMatrix setmatrix} bdef
/FO {MakeOval stroke} bdef
/PO {MakeOval fill} bdef
/PD {currentlinewidth 2 div 0 360 arc fill
   PDlw -1 eq not {PDlw w /PDlw -1 def} if} def
/FA {newpath tMatrix currentmatrix pop translate scale
  0 0 1 5 -2 roll arc tMatrix setmatrix stroke} bdef
/PA {newpath tMatrix currentmatrix pop	translate 0 0 moveto scale
  0 0 1 5 -2 roll arc closepath tMatrix setmatrix fill} bdef
/FAn {newpath tMatrix currentmatrix pop translate scale
  0 0 1 5 -2 roll arcn tMatrix setmatrix stroke} bdef
/PAn {newpath tMatrix currentmatrix pop translate 0 0 moveto scale
  0 0 1 5 -2 roll arcn closepath tMatrix setmatrix fill} bdef
/vradius 0 def /hradius 0 def /lry 0 def
/lrx 0 def /uly 0 def /ulx 0 def /rad 0 def
/MRR {/vradius xdef /hradius xdef /lry xdef /lrx xdef /uly xdef
  /ulx xdef newpath tMatrix currentmatrix pop ulx hradius add uly
  vradius add translate hradius vradius scale 0 0 1 180 270 arc 
  tMatrix setmatrix lrx hradius sub uly vradius add translate
  hradius vradius scale 0 0 1 270 360 arc tMatrix setmatrix
  lrx hradius sub lry vradius sub translate hradius vradius scale
  0 0 1 0 90 arc tMatrix setmatrix ulx hradius add lry vradius sub
  translate hradius vradius scale 0 0 1 90 180 arc tMatrix setmatrix
  closepath} bdef
/FRR {MRR stroke } bdef
/PRR {MRR fill } bdef
/MlrRR {/lry xdef /lrx xdef /uly xdef /ulx xdef /rad lry uly sub 2 div def
  newpath tMatrix currentmatrix pop ulx rad add uly rad add translate
  rad rad scale 0 0 1 90 270 arc tMatrix setmatrix lrx rad sub lry rad
  sub translate rad rad scale 0 0 1 270 90 arc tMatrix setmatrix
  closepath} bdef
/FlrRR {MlrRR stroke } bdef
/PlrRR {MlrRR fill } bdef
/MtbRR {/lry xdef /lrx xdef /uly xdef /ulx xdef /rad lrx ulx sub 2 div def
  newpath tMatrix currentmatrix pop ulx rad add uly rad add translate
  rad rad scale 0 0 1 180 360 arc tMatrix setmatrix lrx rad sub lry rad
  sub translate rad rad scale 0 0 1 0 180 arc tMatrix setmatrix
  closepath} bdef
/FtbRR {MtbRR stroke } bdef
/PtbRR {MtbRR fill } bdef
/stri 6 array def /dtri 6 array def
/smat 6 array def /dmat 6 array def
/tmat1 6 array def /tmat2 6 array def /dif 3 array def
/asub {/ind2 exch def /ind1 exch def dup dup
  ind1 get exch ind2 get sub exch } bdef
/tri_to_matrix {
  2 0 asub 3 1 asub 4 0 asub 5 1 asub
  dup 0 get exch 1 get 7 -1 roll astore } bdef
/compute_transform {
  dmat dtri tri_to_matrix tmat1 invertmatrix 
  smat stri tri_to_matrix tmat2 concatmatrix } bdef
/ds {stri astore pop} bdef
/dt {dtri astore pop} bdef
/db {2 copy /cols xdef /rows xdef mul dup 3 mul string
  currentfile exch readhexstring pop
  dup 0 3 index getinterval /rbmap xdef
  dup 2 index dup getinterval /gbmap xdef
  1 index dup 2 mul exch getinterval /bbmap xdef pop pop}bdef
/it {gs np dtri aload pop moveto lineto lineto cp c
  cols rows 8 compute_transform 
  rbmap gbmap bbmap true 3 colorimage gr}bdef
/il {newpath moveto lineto stroke}bdef
currentdict end def
%%EndProlog

%%BeginSetup
MathWorks begin

0 cap

end
%%EndSetup

%%Page: 1 1
%%BeginPageSetup
%%PageBoundingBox:    18   179   594   616
MathWorks begin
bpage
%%EndPageSetup

%%BeginObject: obj1
bplot

/dpi2point 12 def
portraitMode 0216 7344 csm

    0   -48  6923  5233 MR c np
76 dict begin %Colortable dictionary
/c0 { 0.000000 0.000000 0.000000 sr} bdef
/c1 { 1.000000 1.000000 1.000000 sr} bdef
/c2 { 0.900000 0.000000 0.000000 sr} bdef
/c3 { 0.000000 0.820000 0.000000 sr} bdef
/c4 { 0.000000 0.000000 0.800000 sr} bdef
/c5 { 0.910000 0.820000 0.320000 sr} bdef
/c6 { 1.000000 0.260000 0.820000 sr} bdef
/c7 { 0.000000 0.820000 0.820000 sr} bdef
c0
1 j
1 sg
   0    0 6913 5186 PR
6 w
0 3736 5191 0 0 -3736 1063 4359 4 MP
PP
-5191 0 0 3736 5191 0 0 -3736 1063 4359 5 MP stroke
4 w
DO
SO
6 w
0 sg
1063 4359 mt 6254 4359 L
1063 4359 mt 1063  623 L
1063 4359 mt 1063 4410 L
%%IncludeResource: font Helvetica
/Helvetica /ISOLatin1Encoding 360 FMSR

 963 4780 mt 
(0) s
2505 4359 mt 2505 4410 L
2155 4780 mt 
(0.01) s
3947 4359 mt 3947 4410 L
3597 4780 mt 
(0.02) s
5389 4359 mt 5389 4410 L
5039 4780 mt 
(0.03) s
1063 4359 mt 1011 4359 L
 476 4493 mt 
(0.5) s
1063 3611 mt 1011 3611 L
 476 3745 mt 
(0.6) s
1063 2864 mt 1011 2864 L
 476 2998 mt 
(0.7) s
1063 2117 mt 1011 2117 L
 476 2251 mt 
(0.8) s
1063 1370 mt 1011 1370 L
 476 1504 mt 
(0.9) s
1063  623 mt 1011  623 L
 776  757 mt 
(1) s
/c8 { 0.000000 0.000000 1.000000 sr} bdef
c8
1070  905 mt 1142  905 L
1106  869 mt 1106  941 L
1113  989 mt 1185  989 L
1149  953 mt 1149 1025 L
1156  974 mt 1228  974 L
1192  938 mt 1192 1010 L
1200 1032 mt 1272 1032 L
1236  996 mt 1236 1068 L
1243 1068 mt 1315 1068 L
1279 1032 mt 1279 1104 L
1286 1005 mt 1358 1005 L
1322  969 mt 1322 1041 L
1373 1090 mt 1445 1090 L
1409 1054 mt 1409 1126 L
1459 1101 mt 1531 1101 L
1495 1065 mt 1495 1137 L
1546 1080 mt 1618 1080 L
1582 1044 mt 1582 1116 L
1676 1014 mt 1748 1014 L
1712  978 mt 1712 1050 L
1892 1089 mt 1964 1089 L
1928 1053 mt 1928 1125 L
2325 1137 mt 2397 1137 L
2361 1101 mt 2361 1173 L
2757 1099 mt 2829 1099 L
2793 1063 mt 2793 1135 L
3622 1086 mt 3694 1086 L
3658 1050 mt 3658 1122 L
6218 1101 mt 6290 1101 L
6254 1065 mt 6254 1137 L
1081  880 mt 1131  930 L
1131  880 mt 1081  930 L
1124  964 mt 1174 1014 L
1174  964 mt 1124 1014 L
1167  949 mt 1217  999 L
1217  949 mt 1167  999 L
1211 1007 mt 1261 1057 L
1261 1007 mt 1211 1057 L
1254 1043 mt 1304 1093 L
1304 1043 mt 1254 1093 L
1297  980 mt 1347 1030 L
1347  980 mt 1297 1030 L
1384 1065 mt 1434 1115 L
1434 1065 mt 1384 1115 L
1470 1076 mt 1520 1126 L
1520 1076 mt 1470 1126 L
1557 1055 mt 1607 1105 L
1607 1055 mt 1557 1105 L
1687  989 mt 1737 1039 L
1737  989 mt 1687 1039 L
1903 1064 mt 1953 1114 L
1953 1064 mt 1903 1114 L
2336 1112 mt 2386 1162 L
2386 1112 mt 2336 1162 L
2768 1074 mt 2818 1124 L
2818 1074 mt 2768 1124 L
3633 1061 mt 3683 1111 L
3683 1061 mt 3633 1111 L
6229 1076 mt 6279 1126 L
6279 1076 mt 6229 1126 L
0 sg
 466 5100 mt 
(Shedding length in each shedding event) s
 340 4363 mt  -90 rotate
(Probability of Extinction) s
90 rotate
1652  335 mt 
(Shedding length =0.0003) s

end %%Color Dict

eplot
%%EndObject

epage
end

showpage

%%Trailer
%%EOF
