%!PS-Adobe-2.0 EPSF-1.2
%%Creator: MATLAB, The MathWorks, Inc. Version 8.3.0.532 (R2014a). Operating System: Linux 2.6.32-504.3.3.el6.x86_64 #1 SMP Wed Dec 17 01:55:02 UTC 2014 x86_64.
%%Title: ./survivalProbabilityLogScale0.0006.eps
%%CreationDate: 10/21/2015  21:09:12
%%DocumentNeededFonts: Helvetica
%%DocumentProcessColors: Cyan Magenta Yellow Black
%%Extensions: CMYK
%%Pages: 1
%%BoundingBox:    18   179   594   616
%%EndComments

%%BeginProlog
% MathWorks dictionary
/MathWorks 160 dict begin
% definition operators
/bdef {bind def} bind def
/ldef {load def} bind def
/xdef {exch def} bdef
/xstore {exch store} bdef
% operator abbreviations
/c  /clip ldef
/cc /concat ldef
/cp /closepath ldef
/gr /grestore ldef
/gs /gsave ldef
/mt /moveto ldef
/np /newpath ldef
/cm /currentmatrix ldef
/sm /setmatrix ldef
/rm /rmoveto ldef
/rl /rlineto ldef
/s {show newpath} bdef
/sc {setcmykcolor} bdef
/sr /setrgbcolor ldef
/sg /setgray ldef
/w /setlinewidth ldef
/j /setlinejoin ldef
/cap /setlinecap ldef
/rc {rectclip} bdef
/rf {rectfill} bdef
% page state control
/pgsv () def
/bpage {/pgsv save def} bdef
/epage {pgsv restore} bdef
/bplot /gsave ldef
/eplot {stroke grestore} bdef
% orientation switch
/portraitMode 0 def /landscapeMode 1 def /rotateMode 2 def
% coordinate system mappings
/dpi2point 0 def
% font control
/FontSize 0 def
/FMS {/FontSize xstore findfont [FontSize 0 0 FontSize neg 0 0]
  makefont setfont} bdef
/reencode {exch dup where {pop load} {pop StandardEncoding} ifelse
  exch dup 3 1 roll findfont dup length dict begin
  { 1 index /FID ne {def}{pop pop} ifelse } forall
  /Encoding exch def currentdict end definefont pop} bdef
/isroman {findfont /CharStrings get /Agrave known} bdef
/FMSR {3 1 roll 1 index dup isroman {reencode} {pop pop} ifelse
  exch FMS} bdef
/csm {1 dpi2point div -1 dpi2point div scale neg translate
 dup landscapeMode eq {pop -90 rotate}
  {rotateMode eq {90 rotate} if} ifelse} bdef
% line types: solid, dotted, dashed, dotdash
/SO { [] 0 setdash } bdef
/DO { [.5 dpi2point mul 4 dpi2point mul] 0 setdash } bdef
/DA { [6 dpi2point mul] 0 setdash } bdef
/DD { [.5 dpi2point mul 4 dpi2point mul 6 dpi2point mul 4
  dpi2point mul] 0 setdash } bdef
% macros for lines and objects
/L {lineto stroke} bdef
/MP {3 1 roll moveto 1 sub {rlineto} repeat} bdef
/AP {{rlineto} repeat} bdef
/PDlw -1 def
/W {/PDlw currentlinewidth def setlinewidth} def
/PP {closepath eofill} bdef
/DP {closepath stroke} bdef
/MR {4 -2 roll moveto dup  0 exch rlineto exch 0 rlineto
  neg 0 exch rlineto closepath} bdef
/FR {MR stroke} bdef
/PR {MR fill} bdef
/L1i {{currentfile picstr readhexstring pop} image} bdef
/tMatrix matrix def
/MakeOval {newpath tMatrix currentmatrix pop translate scale
0 0 1 0 360 arc tMatrix setmatrix} bdef
/FO {MakeOval stroke} bdef
/PO {MakeOval fill} bdef
/PD {currentlinewidth 2 div 0 360 arc fill
   PDlw -1 eq not {PDlw w /PDlw -1 def} if} def
/FA {newpath tMatrix currentmatrix pop translate scale
  0 0 1 5 -2 roll arc tMatrix setmatrix stroke} bdef
/PA {newpath tMatrix currentmatrix pop	translate 0 0 moveto scale
  0 0 1 5 -2 roll arc closepath tMatrix setmatrix fill} bdef
/FAn {newpath tMatrix currentmatrix pop translate scale
  0 0 1 5 -2 roll arcn tMatrix setmatrix stroke} bdef
/PAn {newpath tMatrix currentmatrix pop translate 0 0 moveto scale
  0 0 1 5 -2 roll arcn closepath tMatrix setmatrix fill} bdef
/vradius 0 def /hradius 0 def /lry 0 def
/lrx 0 def /uly 0 def /ulx 0 def /rad 0 def
/MRR {/vradius xdef /hradius xdef /lry xdef /lrx xdef /uly xdef
  /ulx xdef newpath tMatrix currentmatrix pop ulx hradius add uly
  vradius add translate hradius vradius scale 0 0 1 180 270 arc 
  tMatrix setmatrix lrx hradius sub uly vradius add translate
  hradius vradius scale 0 0 1 270 360 arc tMatrix setmatrix
  lrx hradius sub lry vradius sub translate hradius vradius scale
  0 0 1 0 90 arc tMatrix setmatrix ulx hradius add lry vradius sub
  translate hradius vradius scale 0 0 1 90 180 arc tMatrix setmatrix
  closepath} bdef
/FRR {MRR stroke } bdef
/PRR {MRR fill } bdef
/MlrRR {/lry xdef /lrx xdef /uly xdef /ulx xdef /rad lry uly sub 2 div def
  newpath tMatrix currentmatrix pop ulx rad add uly rad add translate
  rad rad scale 0 0 1 90 270 arc tMatrix setmatrix lrx rad sub lry rad
  sub translate rad rad scale 0 0 1 270 90 arc tMatrix setmatrix
  closepath} bdef
/FlrRR {MlrRR stroke } bdef
/PlrRR {MlrRR fill } bdef
/MtbRR {/lry xdef /lrx xdef /uly xdef /ulx xdef /rad lrx ulx sub 2 div def
  newpath tMatrix currentmatrix pop ulx rad add uly rad add translate
  rad rad scale 0 0 1 180 360 arc tMatrix setmatrix lrx rad sub lry rad
  sub translate rad rad scale 0 0 1 0 180 arc tMatrix setmatrix
  closepath} bdef
/FtbRR {MtbRR stroke } bdef
/PtbRR {MtbRR fill } bdef
/stri 6 array def /dtri 6 array def
/smat 6 array def /dmat 6 array def
/tmat1 6 array def /tmat2 6 array def /dif 3 array def
/asub {/ind2 exch def /ind1 exch def dup dup
  ind1 get exch ind2 get sub exch } bdef
/tri_to_matrix {
  2 0 asub 3 1 asub 4 0 asub 5 1 asub
  dup 0 get exch 1 get 7 -1 roll astore } bdef
/compute_transform {
  dmat dtri tri_to_matrix tmat1 invertmatrix 
  smat stri tri_to_matrix tmat2 concatmatrix } bdef
/ds {stri astore pop} bdef
/dt {dtri astore pop} bdef
/db {2 copy /cols xdef /rows xdef mul dup 3 mul string
  currentfile exch readhexstring pop
  dup 0 3 index getinterval /rbmap xdef
  dup 2 index dup getinterval /gbmap xdef
  1 index dup 2 mul exch getinterval /bbmap xdef pop pop}bdef
/it {gs np dtri aload pop moveto lineto lineto cp c
  cols rows 8 compute_transform 
  rbmap gbmap bbmap true 3 colorimage gr}bdef
/il {newpath moveto lineto stroke}bdef
currentdict end def
%%EndProlog

%%BeginSetup
MathWorks begin

0 cap

end
%%EndSetup

%%Page: 1 1
%%BeginPageSetup
%%PageBoundingBox:    18   179   594   616
MathWorks begin
bpage
%%EndPageSetup

%%BeginObject: obj1
bplot

/dpi2point 12 def
portraitMode 0216 7344 csm

    0   -48  6923  5233 MR c np
76 dict begin %Colortable dictionary
/c0 { 0.000000 0.000000 0.000000 sr} bdef
/c1 { 1.000000 1.000000 1.000000 sr} bdef
/c2 { 0.900000 0.000000 0.000000 sr} bdef
/c3 { 0.000000 0.820000 0.000000 sr} bdef
/c4 { 0.000000 0.000000 0.800000 sr} bdef
/c5 { 0.910000 0.820000 0.320000 sr} bdef
/c6 { 1.000000 0.260000 0.820000 sr} bdef
/c7 { 0.000000 0.820000 0.820000 sr} bdef
c0
1 j
1 sg
   0    0 6913 5186 PR
6 w
0 3736 5192 0 0 -3736 1063 4359 4 MP
PP
-5192 0 0 3736 5192 0 0 -3736 1063 4359 5 MP stroke
4 w
DO
SO
6 w
0 sg
1063 4359 mt 6255 4359 L
1063 4359 mt 1063  623 L
1063 4359 mt 1063 4410 L
%%IncludeResource: font Helvetica
/Helvetica /ISOLatin1Encoding 360 FMSR

 963 4780 mt 
(0) s
2505 4359 mt 2505 4410 L
2155 4780 mt 
(0.02) s
3947 4359 mt 3947 4410 L
3597 4780 mt 
(0.04) s
5389 4359 mt 5389 4410 L
5039 4780 mt 
(0.06) s
1063 4359 mt 1011 4359 L
 476 4493 mt 
(2.6) s
1063 3611 mt 1011 3611 L
 476 3745 mt 
(2.8) s
1063 2864 mt 1011 2864 L
 776 2998 mt 
(3) s
1063 2117 mt 1011 2117 L
 476 2251 mt 
(3.2) s
1063 1370 mt 1011 1370 L
 476 1504 mt 
(3.4) s
1063  623 mt 1011  623 L
 476  757 mt 
(3.6) s
/c8 { 0.000000 0.000000 1.000000 sr} bdef
c8
1070 1417 mt 1142 1417 L
1106 1381 mt 1106 1453 L
1113 2009 mt 1185 2009 L
1149 1973 mt 1149 2045 L
1156 2470 mt 1228 2470 L
1192 2434 mt 1192 2506 L
1200 2681 mt 1272 2681 L
1236 2645 mt 1236 2717 L
1243 2453 mt 1315 2453 L
1279 2417 mt 1279 2489 L
1286 2617 mt 1358 2617 L
1322 2581 mt 1322 2653 L
1373 2743 mt 1445 2743 L
1409 2707 mt 1409 2779 L
1459 2910 mt 1531 2910 L
1495 2874 mt 1495 2946 L
1546 3098 mt 1618 3098 L
1582 3062 mt 1582 3134 L
1676 3409 mt 1748 3409 L
1712 3373 mt 1712 3445 L
1892 3586 mt 1964 3586 L
1928 3550 mt 1928 3622 L
2325 2925 mt 2397 2925 L
2361 2889 mt 2361 2961 L
2757 3356 mt 2829 3356 L
2793 3320 mt 2793 3392 L
3623 3561 mt 3695 3561 L
3659 3525 mt 3659 3597 L
6219 3767 mt 6291 3767 L
6255 3731 mt 6255 3803 L
1081 1392 mt 1131 1442 L
1131 1392 mt 1081 1442 L
1124 1984 mt 1174 2034 L
1174 1984 mt 1124 2034 L
1167 2445 mt 1217 2495 L
1217 2445 mt 1167 2495 L
1211 2656 mt 1261 2706 L
1261 2656 mt 1211 2706 L
1254 2428 mt 1304 2478 L
1304 2428 mt 1254 2478 L
1297 2592 mt 1347 2642 L
1347 2592 mt 1297 2642 L
1384 2718 mt 1434 2768 L
1434 2718 mt 1384 2768 L
1470 2885 mt 1520 2935 L
1520 2885 mt 1470 2935 L
1557 3073 mt 1607 3123 L
1607 3073 mt 1557 3123 L
1687 3384 mt 1737 3434 L
1737 3384 mt 1687 3434 L
1903 3561 mt 1953 3611 L
1953 3561 mt 1903 3611 L
2336 2900 mt 2386 2950 L
2386 2900 mt 2336 2950 L
2768 3331 mt 2818 3381 L
2818 3331 mt 2768 3381 L
3634 3536 mt 3684 3586 L
3684 3536 mt 3634 3586 L
6230 3742 mt 6280 3792 L
6280 3742 mt 6230 3792 L
0 sg
 466 5100 mt 
(Shedding length in each shedding event) s
 340 4488 mt  -90 rotate
(-log\(Survival Probability\)) s
90 rotate
1652  335 mt 
(Shedding length =0.0006) s

end %%Color Dict

eplot
%%EndObject

epage
end

showpage

%%Trailer
%%EOF
