%!PS-Adobe-2.0 EPSF-1.2
%%Creator: MATLAB, The MathWorks, Inc. Version 8.3.0.532 (R2014a). Operating System: Linux 2.6.32-504.3.3.el6.x86_64 #1 SMP Wed Dec 17 01:55:02 UTC 2014 x86_64.
%%Title: ./survivalProbabilityLogScale0.0004.eps
%%CreationDate: 10/21/2015  21:16:29
%%DocumentNeededFonts: Helvetica
%%DocumentProcessColors: Cyan Magenta Yellow Black
%%Extensions: CMYK
%%Pages: 1
%%BoundingBox:    18   179   594   616
%%EndComments

%%BeginProlog
% MathWorks dictionary
/MathWorks 160 dict begin
% definition operators
/bdef {bind def} bind def
/ldef {load def} bind def
/xdef {exch def} bdef
/xstore {exch store} bdef
% operator abbreviations
/c  /clip ldef
/cc /concat ldef
/cp /closepath ldef
/gr /grestore ldef
/gs /gsave ldef
/mt /moveto ldef
/np /newpath ldef
/cm /currentmatrix ldef
/sm /setmatrix ldef
/rm /rmoveto ldef
/rl /rlineto ldef
/s {show newpath} bdef
/sc {setcmykcolor} bdef
/sr /setrgbcolor ldef
/sg /setgray ldef
/w /setlinewidth ldef
/j /setlinejoin ldef
/cap /setlinecap ldef
/rc {rectclip} bdef
/rf {rectfill} bdef
% page state control
/pgsv () def
/bpage {/pgsv save def} bdef
/epage {pgsv restore} bdef
/bplot /gsave ldef
/eplot {stroke grestore} bdef
% orientation switch
/portraitMode 0 def /landscapeMode 1 def /rotateMode 2 def
% coordinate system mappings
/dpi2point 0 def
% font control
/FontSize 0 def
/FMS {/FontSize xstore findfont [FontSize 0 0 FontSize neg 0 0]
  makefont setfont} bdef
/reencode {exch dup where {pop load} {pop StandardEncoding} ifelse
  exch dup 3 1 roll findfont dup length dict begin
  { 1 index /FID ne {def}{pop pop} ifelse } forall
  /Encoding exch def currentdict end definefont pop} bdef
/isroman {findfont /CharStrings get /Agrave known} bdef
/FMSR {3 1 roll 1 index dup isroman {reencode} {pop pop} ifelse
  exch FMS} bdef
/csm {1 dpi2point div -1 dpi2point div scale neg translate
 dup landscapeMode eq {pop -90 rotate}
  {rotateMode eq {90 rotate} if} ifelse} bdef
% line types: solid, dotted, dashed, dotdash
/SO { [] 0 setdash } bdef
/DO { [.5 dpi2point mul 4 dpi2point mul] 0 setdash } bdef
/DA { [6 dpi2point mul] 0 setdash } bdef
/DD { [.5 dpi2point mul 4 dpi2point mul 6 dpi2point mul 4
  dpi2point mul] 0 setdash } bdef
% macros for lines and objects
/L {lineto stroke} bdef
/MP {3 1 roll moveto 1 sub {rlineto} repeat} bdef
/AP {{rlineto} repeat} bdef
/PDlw -1 def
/W {/PDlw currentlinewidth def setlinewidth} def
/PP {closepath eofill} bdef
/DP {closepath stroke} bdef
/MR {4 -2 roll moveto dup  0 exch rlineto exch 0 rlineto
  neg 0 exch rlineto closepath} bdef
/FR {MR stroke} bdef
/PR {MR fill} bdef
/L1i {{currentfile picstr readhexstring pop} image} bdef
/tMatrix matrix def
/MakeOval {newpath tMatrix currentmatrix pop translate scale
0 0 1 0 360 arc tMatrix setmatrix} bdef
/FO {MakeOval stroke} bdef
/PO {MakeOval fill} bdef
/PD {currentlinewidth 2 div 0 360 arc fill
   PDlw -1 eq not {PDlw w /PDlw -1 def} if} def
/FA {newpath tMatrix currentmatrix pop translate scale
  0 0 1 5 -2 roll arc tMatrix setmatrix stroke} bdef
/PA {newpath tMatrix currentmatrix pop	translate 0 0 moveto scale
  0 0 1 5 -2 roll arc closepath tMatrix setmatrix fill} bdef
/FAn {newpath tMatrix currentmatrix pop translate scale
  0 0 1 5 -2 roll arcn tMatrix setmatrix stroke} bdef
/PAn {newpath tMatrix currentmatrix pop translate 0 0 moveto scale
  0 0 1 5 -2 roll arcn closepath tMatrix setmatrix fill} bdef
/vradius 0 def /hradius 0 def /lry 0 def
/lrx 0 def /uly 0 def /ulx 0 def /rad 0 def
/MRR {/vradius xdef /hradius xdef /lry xdef /lrx xdef /uly xdef
  /ulx xdef newpath tMatrix currentmatrix pop ulx hradius add uly
  vradius add translate hradius vradius scale 0 0 1 180 270 arc 
  tMatrix setmatrix lrx hradius sub uly vradius add translate
  hradius vradius scale 0 0 1 270 360 arc tMatrix setmatrix
  lrx hradius sub lry vradius sub translate hradius vradius scale
  0 0 1 0 90 arc tMatrix setmatrix ulx hradius add lry vradius sub
  translate hradius vradius scale 0 0 1 90 180 arc tMatrix setmatrix
  closepath} bdef
/FRR {MRR stroke } bdef
/PRR {MRR fill } bdef
/MlrRR {/lry xdef /lrx xdef /uly xdef /ulx xdef /rad lry uly sub 2 div def
  newpath tMatrix currentmatrix pop ulx rad add uly rad add translate
  rad rad scale 0 0 1 90 270 arc tMatrix setmatrix lrx rad sub lry rad
  sub translate rad rad scale 0 0 1 270 90 arc tMatrix setmatrix
  closepath} bdef
/FlrRR {MlrRR stroke } bdef
/PlrRR {MlrRR fill } bdef
/MtbRR {/lry xdef /lrx xdef /uly xdef /ulx xdef /rad lrx ulx sub 2 div def
  newpath tMatrix currentmatrix pop ulx rad add uly rad add translate
  rad rad scale 0 0 1 180 360 arc tMatrix setmatrix lrx rad sub lry rad
  sub translate rad rad scale 0 0 1 0 180 arc tMatrix setmatrix
  closepath} bdef
/FtbRR {MtbRR stroke } bdef
/PtbRR {MtbRR fill } bdef
/stri 6 array def /dtri 6 array def
/smat 6 array def /dmat 6 array def
/tmat1 6 array def /tmat2 6 array def /dif 3 array def
/asub {/ind2 exch def /ind1 exch def dup dup
  ind1 get exch ind2 get sub exch } bdef
/tri_to_matrix {
  2 0 asub 3 1 asub 4 0 asub 5 1 asub
  dup 0 get exch 1 get 7 -1 roll astore } bdef
/compute_transform {
  dmat dtri tri_to_matrix tmat1 invertmatrix 
  smat stri tri_to_matrix tmat2 concatmatrix } bdef
/ds {stri astore pop} bdef
/dt {dtri astore pop} bdef
/db {2 copy /cols xdef /rows xdef mul dup 3 mul string
  currentfile exch readhexstring pop
  dup 0 3 index getinterval /rbmap xdef
  dup 2 index dup getinterval /gbmap xdef
  1 index dup 2 mul exch getinterval /bbmap xdef pop pop}bdef
/it {gs np dtri aload pop moveto lineto lineto cp c
  cols rows 8 compute_transform 
  rbmap gbmap bbmap true 3 colorimage gr}bdef
/il {newpath moveto lineto stroke}bdef
currentdict end def
%%EndProlog

%%BeginSetup
MathWorks begin

0 cap

end
%%EndSetup

%%Page: 1 1
%%BeginPageSetup
%%PageBoundingBox:    18   179   594   616
MathWorks begin
bpage
%%EndPageSetup

%%BeginObject: obj1
bplot

/dpi2point 12 def
portraitMode 0216 7344 csm

    0   -48  6923  5233 MR c np
76 dict begin %Colortable dictionary
/c0 { 0.000000 0.000000 0.000000 sr} bdef
/c1 { 1.000000 1.000000 1.000000 sr} bdef
/c2 { 0.900000 0.000000 0.000000 sr} bdef
/c3 { 0.000000 0.820000 0.000000 sr} bdef
/c4 { 0.000000 0.000000 0.800000 sr} bdef
/c5 { 0.910000 0.820000 0.320000 sr} bdef
/c6 { 1.000000 0.260000 0.820000 sr} bdef
/c7 { 0.000000 0.820000 0.820000 sr} bdef
c0
1 j
1 sg
   0    0 6913 5186 PR
6 w
0 3736 5192 0 0 -3736 1063 4359 4 MP
PP
-5192 0 0 3736 5192 0 0 -3736 1063 4359 5 MP stroke
4 w
DO
SO
6 w
0 sg
1063 4359 mt 6255 4359 L
1063 4359 mt 1063  623 L
1063 4359 mt 1063 4410 L
%%IncludeResource: font Helvetica
/Helvetica /ISOLatin1Encoding 360 FMSR

 963 4780 mt 
(0) s
2144 4359 mt 2144 4410 L
1794 4780 mt 
(0.01) s
3226 4359 mt 3226 4410 L
2876 4780 mt 
(0.02) s
4308 4359 mt 4308 4410 L
3958 4780 mt 
(0.03) s
5389 4359 mt 5389 4410 L
5039 4780 mt 
(0.04) s
1063 4359 mt 1011 4359 L
 476 4493 mt 
(2.6) s
1063 3611 mt 1011 3611 L
 476 3745 mt 
(2.8) s
1063 2864 mt 1011 2864 L
 776 2998 mt 
(3) s
1063 2117 mt 1011 2117 L
 476 2251 mt 
(3.2) s
1063 1370 mt 1011 1370 L
 476 1504 mt 
(3.4) s
1063  623 mt 1011  623 L
 476  757 mt 
(3.6) s
/c8 { 0.000000 0.000000 1.000000 sr} bdef
c8
1070 1417 mt 1142 1417 L
1106 1381 mt 1106 1453 L
1113 2246 mt 1185 2246 L
1149 2210 mt 1149 2282 L
1156 3223 mt 1228 3223 L
1192 3187 mt 1192 3259 L
1200 3041 mt 1272 3041 L
1236 3005 mt 1236 3077 L
1243 3209 mt 1315 3209 L
1279 3173 mt 1279 3245 L
1286 2865 mt 1358 2865 L
1322 2829 mt 1322 2901 L
1373 3409 mt 1445 3409 L
1409 3373 mt 1409 3445 L
1459 2969 mt 1531 2969 L
1495 2933 mt 1495 3005 L
1546 3343 mt 1618 3343 L
1582 3307 mt 1582 3379 L
1676 3611 mt 1748 3611 L
1712 3575 mt 1712 3647 L
1892 3486 mt 1964 3486 L
1928 3450 mt 1928 3522 L
2325 3549 mt 2397 3549 L
2361 3513 mt 2361 3585 L
2757 3623 mt 2829 3623 L
2793 3587 mt 2793 3659 L
3623 3611 mt 3695 3611 L
3659 3575 mt 3659 3647 L
6219 3720 mt 6291 3720 L
6255 3684 mt 6255 3756 L
1081 1392 mt 1131 1442 L
1131 1392 mt 1081 1442 L
1124 2221 mt 1174 2271 L
1174 2221 mt 1124 2271 L
1167 3198 mt 1217 3248 L
1217 3198 mt 1167 3248 L
1211 3016 mt 1261 3066 L
1261 3016 mt 1211 3066 L
1254 3184 mt 1304 3234 L
1304 3184 mt 1254 3234 L
1297 2840 mt 1347 2890 L
1347 2840 mt 1297 2890 L
1384 3384 mt 1434 3434 L
1434 3384 mt 1384 3434 L
1470 2944 mt 1520 2994 L
1520 2944 mt 1470 2994 L
1557 3318 mt 1607 3368 L
1607 3318 mt 1557 3368 L
1687 3586 mt 1737 3636 L
1737 3586 mt 1687 3636 L
1903 3461 mt 1953 3511 L
1953 3461 mt 1903 3511 L
2336 3524 mt 2386 3574 L
2386 3524 mt 2336 3574 L
2768 3598 mt 2818 3648 L
2818 3598 mt 2768 3648 L
3634 3586 mt 3684 3636 L
3684 3586 mt 3634 3636 L
6230 3695 mt 6280 3745 L
6280 3695 mt 6230 3745 L
0 sg
 466 5100 mt 
(Shedding length in each shedding event) s
 340 4488 mt  -90 rotate
(-log\(Survival Probability\)) s
90 rotate
1652  335 mt 
(Shedding length =0.0004) s

end %%Color Dict

eplot
%%EndObject

epage
end

showpage

%%Trailer
%%EOF
