%!PS-Adobe-3.0 EPSF-3.0
%%Creator: (MATLAB, The Mathworks, Inc. Version 8.4.0.150421 \(R2014b\). Operating System: Mac OS X)
%%Title: /home/zhou.494/Documents/MATLAB/p-Sharon_MURI/BBM/1D/extinctionTime.eps
%%CreationDate: 2015-06-19T10:56:51
%%Pages: (atend)
%%BoundingBox: 0 0 710 532
%%LanguageLevel: 2
%%EndComments
%%BeginProlog
%%BeginResource: procset (Apache XML Graphics Std ProcSet) 1.2 0
%%Version: 1.2 0
%%Copyright: (Copyright 2001-2003,2010 The Apache Software Foundation. License terms: http://www.apache.org/licenses/LICENSE-2.0)
/bd{bind def}bind def
/ld{load def}bd
/GR/grestore ld
/M/moveto ld
/LJ/setlinejoin ld
/C/curveto ld
/f/fill ld
/LW/setlinewidth ld
/GC/setgray ld
/t/show ld
/N/newpath ld
/CT/concat ld
/cp/closepath ld
/S/stroke ld
/L/lineto ld
/CC/setcmykcolor ld
/A/ashow ld
/GS/gsave ld
/RC/setrgbcolor ld
/RM/rmoveto ld
/ML/setmiterlimit ld
/re {4 2 roll M
1 index 0 rlineto
0 exch rlineto
neg 0 rlineto
cp } bd
/_ctm matrix def
/_tm matrix def
/BT { _ctm currentmatrix pop matrix _tm copy pop 0 0 moveto } bd
/ET { _ctm setmatrix } bd
/iTm { _ctm setmatrix _tm concat } bd
/Tm { _tm astore pop iTm 0 0 moveto } bd
/ux 0.0 def
/uy 0.0 def
/F {
  /Tp exch def
  /Tf exch def
  Tf findfont Tp scalefont setfont
  /cf Tf def  /cs Tp def
} bd
/ULS {currentpoint /uy exch def /ux exch def} bd
/ULE {
  /Tcx currentpoint pop def
  gsave
  newpath
  cf findfont cs scalefont dup
  /FontMatrix get 0 get /Ts exch def /FontInfo get dup
  /UnderlinePosition get Ts mul /To exch def
  /UnderlineThickness get Ts mul /Tt exch def
  ux uy To add moveto  Tcx uy To add lineto
  Tt setlinewidth stroke
  grestore
} bd
/OLE {
  /Tcx currentpoint pop def
  gsave
  newpath
  cf findfont cs scalefont dup
  /FontMatrix get 0 get /Ts exch def /FontInfo get dup
  /UnderlinePosition get Ts mul /To exch def
  /UnderlineThickness get Ts mul /Tt exch def
  ux uy To add cs add moveto Tcx uy To add cs add lineto
  Tt setlinewidth stroke
  grestore
} bd
/SOE {
  /Tcx currentpoint pop def
  gsave
  newpath
  cf findfont cs scalefont dup
  /FontMatrix get 0 get /Ts exch def /FontInfo get dup
  /UnderlinePosition get Ts mul /To exch def
  /UnderlineThickness get Ts mul /Tt exch def
  ux uy To add cs 10 mul 26 idiv add moveto Tcx uy To add cs 10 mul 26 idiv add lineto
  Tt setlinewidth stroke
  grestore
} bd
/QT {
/Y22 exch store
/X22 exch store
/Y21 exch store
/X21 exch store
currentpoint
/Y21 load 2 mul add 3 div exch
/X21 load 2 mul add 3 div exch
/X21 load 2 mul /X22 load add 3 div
/Y21 load 2 mul /Y22 load add 3 div
/X22 load /Y22 load curveto
} bd
/SSPD {
dup length /d exch dict def
{
/v exch def
/k exch def
currentpagedevice k known {
/cpdv currentpagedevice k get def
v cpdv ne {
/upd false def
/nullv v type /nulltype eq def
/nullcpdv cpdv type /nulltype eq def
nullv nullcpdv or
{
/upd true def
} {
/sametype v type cpdv type eq def
sametype {
v type /arraytype eq {
/vlen v length def
/cpdvlen cpdv length def
vlen cpdvlen eq {
0 1 vlen 1 sub {
/i exch def
/obj v i get def
/cpdobj cpdv i get def
obj cpdobj ne {
/upd true def
exit
} if
} for
} {
/upd true def
} ifelse
} {
v type /dicttype eq {
v {
/dv exch def
/dk exch def
/cpddv cpdv dk get def
dv cpddv ne {
/upd true def
exit
} if
} forall
} {
/upd true def
} ifelse
} ifelse
} if
} ifelse
upd true eq {
d k v put
} if
} if
} if
} forall
d length 0 gt {
d setpagedevice
} if
} bd
%%EndResource
%%BeginResource: procset (Apache XML Graphics EPS ProcSet) 1.0 0
%%Version: 1.0 0
%%Copyright: (Copyright 2002-2003 The Apache Software Foundation. License terms: http://www.apache.org/licenses/LICENSE-2.0)
/BeginEPSF { %def
/b4_Inc_state save def         % Save state for cleanup
/dict_count countdictstack def % Count objects on dict stack
/op_count count 1 sub def      % Count objects on operand stack
userdict begin                 % Push userdict on dict stack
/showpage { } def              % Redefine showpage, { } = null proc
0 setgray 0 setlinecap         % Prepare graphics state
1 setlinewidth 0 setlinejoin
10 setmiterlimit [ ] 0 setdash newpath
/languagelevel where           % If level not equal to 1 then
{pop languagelevel             % set strokeadjust and
1 ne                           % overprint to their defaults.
{false setstrokeadjust false setoverprint
} if
} if
} bd
/EndEPSF { %def
count op_count sub {pop} repeat            % Clean up stacks
countdictstack dict_count sub {end} repeat
b4_Inc_state restore
} bd
%%EndResource
%FOPBeginFontDict
%%IncludeResource: font Courier-Bold
%%IncludeResource: font Helvetica
%%IncludeResource: font Courier-BoldOblique
%%IncludeResource: font Courier-Oblique
%%IncludeResource: font Times-Roman
%%IncludeResource: font Helvetica-BoldOblique
%%IncludeResource: font Helvetica-Bold
%%IncludeResource: font Helvetica-Oblique
%%IncludeResource: font Times-BoldItalic
%%IncludeResource: font Courier
%%IncludeResource: font Times-Italic
%%IncludeResource: font Times-Bold
%%IncludeResource: font Symbol
%%IncludeResource: font ZapfDingbats
%FOPEndFontDict
%%BeginResource: encoding WinAnsiEncoding
/WinAnsiEncoding [
/.notdef /.notdef /.notdef /.notdef /.notdef
/.notdef /.notdef /.notdef /.notdef /.notdef
/.notdef /.notdef /.notdef /.notdef /.notdef
/.notdef /.notdef /.notdef /.notdef /.notdef
/.notdef /.notdef /.notdef /.notdef /.notdef
/.notdef /.notdef /.notdef /.notdef /.notdef
/.notdef /.notdef /space /exclam /quotedbl
/numbersign /dollar /percent /ampersand /quotesingle
/parenleft /parenright /asterisk /plus /comma
/hyphen /period /slash /zero /one
/two /three /four /five /six
/seven /eight /nine /colon /semicolon
/less /equal /greater /question /at
/A /B /C /D /E
/F /G /H /I /J
/K /L /M /N /O
/P /Q /R /S /T
/U /V /W /X /Y
/Z /bracketleft /backslash /bracketright /asciicircum
/underscore /quoteleft /a /b /c
/d /e /f /g /h
/i /j /k /l /m
/n /o /p /q /r
/s /t /u /v /w
/x /y /z /braceleft /bar
/braceright /asciitilde /bullet /Euro /bullet
/quotesinglbase /florin /quotedblbase /ellipsis /dagger
/daggerdbl /circumflex /perthousand /Scaron /guilsinglleft
/OE /bullet /Zcaron /bullet /bullet
/quoteleft /quoteright /quotedblleft /quotedblright /bullet
/endash /emdash /asciitilde /trademark /scaron
/guilsinglright /oe /bullet /zcaron /Ydieresis
/space /exclamdown /cent /sterling /currency
/yen /brokenbar /section /dieresis /copyright
/ordfeminine /guillemotleft /logicalnot /sfthyphen /registered
/macron /degree /plusminus /twosuperior /threesuperior
/acute /mu /paragraph /middot /cedilla
/onesuperior /ordmasculine /guillemotright /onequarter /onehalf
/threequarters /questiondown /Agrave /Aacute /Acircumflex
/Atilde /Adieresis /Aring /AE /Ccedilla
/Egrave /Eacute /Ecircumflex /Edieresis /Igrave
/Iacute /Icircumflex /Idieresis /Eth /Ntilde
/Ograve /Oacute /Ocircumflex /Otilde /Odieresis
/multiply /Oslash /Ugrave /Uacute /Ucircumflex
/Udieresis /Yacute /Thorn /germandbls /agrave
/aacute /acircumflex /atilde /adieresis /aring
/ae /ccedilla /egrave /eacute /ecircumflex
/edieresis /igrave /iacute /icircumflex /idieresis
/eth /ntilde /ograve /oacute /ocircumflex
/otilde /odieresis /divide /oslash /ugrave
/uacute /ucircumflex /udieresis /yacute /thorn
/ydieresis
] def
%%EndResource
%FOPBeginFontReencode
/Courier-Bold findfont
dup length dict begin
  {1 index /FID ne {def} {pop pop} ifelse} forall
  /Encoding WinAnsiEncoding def
  currentdict
end
/Courier-Bold exch definefont pop
/Helvetica findfont
dup length dict begin
  {1 index /FID ne {def} {pop pop} ifelse} forall
  /Encoding WinAnsiEncoding def
  currentdict
end
/Helvetica exch definefont pop
/Courier-BoldOblique findfont
dup length dict begin
  {1 index /FID ne {def} {pop pop} ifelse} forall
  /Encoding WinAnsiEncoding def
  currentdict
end
/Courier-BoldOblique exch definefont pop
/Courier-Oblique findfont
dup length dict begin
  {1 index /FID ne {def} {pop pop} ifelse} forall
  /Encoding WinAnsiEncoding def
  currentdict
end
/Courier-Oblique exch definefont pop
/Times-Roman findfont
dup length dict begin
  {1 index /FID ne {def} {pop pop} ifelse} forall
  /Encoding WinAnsiEncoding def
  currentdict
end
/Times-Roman exch definefont pop
/Helvetica-BoldOblique findfont
dup length dict begin
  {1 index /FID ne {def} {pop pop} ifelse} forall
  /Encoding WinAnsiEncoding def
  currentdict
end
/Helvetica-BoldOblique exch definefont pop
/Helvetica-Bold findfont
dup length dict begin
  {1 index /FID ne {def} {pop pop} ifelse} forall
  /Encoding WinAnsiEncoding def
  currentdict
end
/Helvetica-Bold exch definefont pop
/Helvetica-Oblique findfont
dup length dict begin
  {1 index /FID ne {def} {pop pop} ifelse} forall
  /Encoding WinAnsiEncoding def
  currentdict
end
/Helvetica-Oblique exch definefont pop
/Times-BoldItalic findfont
dup length dict begin
  {1 index /FID ne {def} {pop pop} ifelse} forall
  /Encoding WinAnsiEncoding def
  currentdict
end
/Times-BoldItalic exch definefont pop
/Courier findfont
dup length dict begin
  {1 index /FID ne {def} {pop pop} ifelse} forall
  /Encoding WinAnsiEncoding def
  currentdict
end
/Courier exch definefont pop
/Times-Italic findfont
dup length dict begin
  {1 index /FID ne {def} {pop pop} ifelse} forall
  /Encoding WinAnsiEncoding def
  currentdict
end
/Times-Italic exch definefont pop
/Times-Bold findfont
dup length dict begin
  {1 index /FID ne {def} {pop pop} ifelse} forall
  /Encoding WinAnsiEncoding def
  currentdict
end
/Times-Bold exch definefont pop
%FOPEndFontReencode
%%EndProlog
%%Page: 1 1
%%PageBoundingBox: 0 0 710 532
%%BeginPageSetup
[1 0 0 -1 0 532] CT
%%EndPageSetup
GS
1 GC
N
0 0 710 532 re
f
GR
GS
1 GC
N
0 0 710 532 re
f
GR
GS
1 GC
N
92 473 M
643 473 L
643 40 L
92 40 L
cp
f
GR
GS
0.149 GC
2 setlinecap
10.0 ML
N
92 473 M
643 473 L
S
GR
GS
0.149 GC
2 setlinecap
10.0 ML
N
92 40 M
643 40 L
S
GR
GS
0.149 GC
2 setlinecap
10.0 ML
N
92 473 M
92 467.49 L
S
GR
GS
0.149 GC
2 setlinecap
10.0 ML
N
92 40 M
92 45.51 L
S
GR
GS
0.149 GC
2 setlinecap
10.0 ML
N
147.1 473 M
147.1 467.49 L
S
GR
GS
0.149 GC
2 setlinecap
10.0 ML
N
147.1 40 M
147.1 45.51 L
S
GR
GS
0.149 GC
2 setlinecap
10.0 ML
N
202.2 473 M
202.2 467.49 L
S
GR
GS
0.149 GC
2 setlinecap
10.0 ML
N
202.2 40 M
202.2 45.51 L
S
GR
GS
0.149 GC
2 setlinecap
10.0 ML
N
257.3 473 M
257.3 467.49 L
S
GR
GS
0.149 GC
2 setlinecap
10.0 ML
N
257.3 40 M
257.3 45.51 L
S
GR
GS
0.149 GC
2 setlinecap
10.0 ML
N
312.4 473 M
312.4 467.49 L
S
GR
GS
0.149 GC
2 setlinecap
10.0 ML
N
312.4 40 M
312.4 45.51 L
S
GR
GS
0.149 GC
2 setlinecap
10.0 ML
N
367.5 473 M
367.5 467.49 L
S
GR
GS
0.149 GC
2 setlinecap
10.0 ML
N
367.5 40 M
367.5 45.51 L
S
GR
GS
0.149 GC
2 setlinecap
10.0 ML
N
422.6 473 M
422.6 467.49 L
S
GR
GS
0.149 GC
2 setlinecap
10.0 ML
N
422.6 40 M
422.6 45.51 L
S
GR
GS
0.149 GC
2 setlinecap
10.0 ML
N
477.7 473 M
477.7 467.49 L
S
GR
GS
0.149 GC
2 setlinecap
10.0 ML
N
477.7 40 M
477.7 45.51 L
S
GR
GS
0.149 GC
2 setlinecap
10.0 ML
N
532.8 473 M
532.8 467.49 L
S
GR
GS
0.149 GC
2 setlinecap
10.0 ML
N
532.8 40 M
532.8 45.51 L
S
GR
GS
0.149 GC
2 setlinecap
10.0 ML
N
587.9 473 M
587.9 467.49 L
S
GR
GS
0.149 GC
2 setlinecap
10.0 ML
N
587.9 40 M
587.9 45.51 L
S
GR
GS
0.149 GC
2 setlinecap
10.0 ML
N
643 473 M
643 467.49 L
S
GR
GS
0.149 GC
2 setlinecap
10.0 ML
N
643 40 M
643 45.51 L
S
GR
GS
[1 0 0 1 92 477.00003] CT
0.149 GC
/Helvetica 10 F
GS
[1 0 0 1 0 0] CT
-2.781 7.7 moveto 
1 -1 scale
(0) t 
GR
GR
GS
[1 0 0 1 147.10001 477.00003] CT
0.149 GC
/Helvetica 10 F
GS
[1 0 0 1 0 0] CT
-9.731 7.7 moveto 
1 -1 scale
(0.01) t 
GR
GR
GS
[1 0 0 1 202.2 477.00003] CT
0.149 GC
/Helvetica 10 F
GS
[1 0 0 1 0 0] CT
-9.731 7.7 moveto 
1 -1 scale
(0.02) t 
GR
GR
GS
[1 0 0 1 257.29999 477.00003] CT
0.149 GC
/Helvetica 10 F
GS
[1 0 0 1 0 0] CT
-9.731 7.7 moveto 
1 -1 scale
(0.03) t 
GR
GR
GS
[1 0 0 1 312.39999 477.00003] CT
0.149 GC
/Helvetica 10 F
GS
[1 0 0 1 0 0] CT
-9.731 7.7 moveto 
1 -1 scale
(0.04) t 
GR
GR
GS
[1 0 0 1 367.5 477.00003] CT
0.149 GC
/Helvetica 10 F
GS
[1 0 0 1 0 0] CT
-9.731 7.7 moveto 
1 -1 scale
(0.05) t 
GR
GR
GS
[1 0 0 1 422.60001 477.00003] CT
0.149 GC
/Helvetica 10 F
GS
[1 0 0 1 0 0] CT
-9.731 7.7 moveto 
1 -1 scale
(0.06) t 
GR
GR
GS
[1 0 0 1 477.70001 477.00003] CT
0.149 GC
/Helvetica 10 F
GS
[1 0 0 1 0 0] CT
-9.731 7.7 moveto 
1 -1 scale
(0.07) t 
GR
GR
GS
[1 0 0 1 532.79999 477.00003] CT
0.149 GC
/Helvetica 10 F
GS
[1 0 0 1 0 0] CT
-9.731 7.7 moveto 
1 -1 scale
(0.08) t 
GR
GR
GS
[1 0 0 1 587.90002 477.00003] CT
0.149 GC
/Helvetica 10 F
GS
[1 0 0 1 0 0] CT
-9.731 7.7 moveto 
1 -1 scale
(0.09) t 
GR
GR
GS
[1 0 0 1 643 477.00003] CT
0.149 GC
/Helvetica 10 F
GS
[1 0 0 1 0 0] CT
-6.951 7.7 moveto 
1 -1 scale
(0.1) t 
GR
GR
GS
0.149 GC
2 setlinecap
10.0 ML
N
92 473 M
92 40 L
S
GR
GS
0.149 GC
2 setlinecap
10.0 ML
N
643 473 M
643 40 L
S
GR
GS
0.149 GC
2 setlinecap
10.0 ML
N
92 473 M
97.51 473 L
S
GR
GS
0.149 GC
2 setlinecap
10.0 ML
N
643 473 M
637.49 473 L
S
GR
GS
0.149 GC
2 setlinecap
10.0 ML
N
92 424.889 M
97.51 424.889 L
S
GR
GS
0.149 GC
2 setlinecap
10.0 ML
N
643 424.889 M
637.49 424.889 L
S
GR
GS
0.149 GC
2 setlinecap
10.0 ML
N
92 376.778 M
97.51 376.778 L
S
GR
GS
0.149 GC
2 setlinecap
10.0 ML
N
643 376.778 M
637.49 376.778 L
S
GR
GS
0.149 GC
2 setlinecap
10.0 ML
N
92 328.667 M
97.51 328.667 L
S
GR
GS
0.149 GC
2 setlinecap
10.0 ML
N
643 328.667 M
637.49 328.667 L
S
GR
GS
0.149 GC
2 setlinecap
10.0 ML
N
92 280.556 M
97.51 280.556 L
S
GR
GS
0.149 GC
2 setlinecap
10.0 ML
N
643 280.556 M
637.49 280.556 L
S
GR
GS
0.149 GC
2 setlinecap
10.0 ML
N
92 232.444 M
97.51 232.444 L
S
GR
GS
0.149 GC
2 setlinecap
10.0 ML
N
643 232.444 M
637.49 232.444 L
S
GR
GS
0.149 GC
2 setlinecap
10.0 ML
N
92 184.333 M
97.51 184.333 L
S
GR
GS
0.149 GC
2 setlinecap
10.0 ML
N
643 184.333 M
637.49 184.333 L
S
GR
GS
0.149 GC
2 setlinecap
10.0 ML
N
92 136.222 M
97.51 136.222 L
S
GR
GS
0.149 GC
2 setlinecap
10.0 ML
N
643 136.222 M
637.49 136.222 L
S
GR
GS
0.149 GC
2 setlinecap
10.0 ML
N
92 88.111 M
97.51 88.111 L
S
GR
GS
0.149 GC
2 setlinecap
10.0 ML
N
643 88.111 M
637.49 88.111 L
S
GR
GS
0.149 GC
2 setlinecap
10.0 ML
N
92 40 M
97.51 40 L
S
GR
GS
0.149 GC
2 setlinecap
10.0 ML
N
643 40 M
637.49 40 L
S
GR
GS
[1 0 0 1 88 473.00003] CT
0.149 GC
/Helvetica 10 F
GS
[1 0 0 1 0 0] CT
-19.463 3.2 moveto 
1 -1 scale
(0.26) t 
GR
GR
GS
[1 0 0 1 88 424.88889] CT
0.149 GC
/Helvetica 10 F
GS
[1 0 0 1 0 0] CT
-19.463 3.2 moveto 
1 -1 scale
(0.28) t 
GR
GR
GS
[1 0 0 1 88 376.77774] CT
0.149 GC
/Helvetica 10 F
GS
[1 0 0 1 0 0] CT
-13.901 3.2 moveto 
1 -1 scale
(0.3) t 
GR
GR
GS
[1 0 0 1 88 328.66669] CT
0.149 GC
/Helvetica 10 F
GS
[1 0 0 1 0 0] CT
-19.463 3.2 moveto 
1 -1 scale
(0.32) t 
GR
GR
GS
[1 0 0 1 88 280.55554] CT
0.149 GC
/Helvetica 10 F
GS
[1 0 0 1 0 0] CT
-19.463 3.2 moveto 
1 -1 scale
(0.34) t 
GR
GR
GS
[1 0 0 1 88 232.44441] CT
0.149 GC
/Helvetica 10 F
GS
[1 0 0 1 0 0] CT
-19.463 3.2 moveto 
1 -1 scale
(0.36) t 
GR
GR
GS
[1 0 0 1 88 184.33334] CT
0.149 GC
/Helvetica 10 F
GS
[1 0 0 1 0 0] CT
-19.463 3.2 moveto 
1 -1 scale
(0.38) t 
GR
GR
GS
[1 0 0 1 88 136.22221] CT
0.149 GC
/Helvetica 10 F
GS
[1 0 0 1 0 0] CT
-13.901 3.2 moveto 
1 -1 scale
(0.4) t 
GR
GR
GS
[1 0 0 1 88 88.11115] CT
0.149 GC
/Helvetica 10 F
GS
[1 0 0 1 0 0] CT
-19.463 3.2 moveto 
1 -1 scale
(0.42) t 
GR
GR
GS
[1 0 0 1 88 40.00001] CT
0.149 GC
/Helvetica 10 F
GS
[1 0 0 1 0 0] CT
-19.463 3.2 moveto 
1 -1 scale
(0.44) t 
GR
GR
GS
0 0.447 0.741 RC
2 setlinecap
10.0 ML
N
92 239.4 M
229.75 117.023 L
367.5 48.879 L
505.25 80.344 L
643 451.09 L
S
GR
%%Trailer
%%Pages: 1
%%EOF
