%!PS-Adobe-3.0 EPSF-3.0
%%Creator: (MATLAB, The Mathworks, Inc. Version 8.4.0.150421 \(R2014b\). Operating System: Mac OS X)
%%Title: /home/zhou.494/Documents/MATLAB/p-Sharon_MURI/BBM/1D/probExtinction.eps
%%CreationDate: 2015-06-19T10:56:38
%%Pages: (atend)
%%BoundingBox: 0 0 751 596
%%LanguageLevel: 2
%%EndComments
%%BeginProlog
%%BeginResource: procset (Apache XML Graphics Std ProcSet) 1.2 0
%%Version: 1.2 0
%%Copyright: (Copyright 2001-2003,2010 The Apache Software Foundation. License terms: http://www.apache.org/licenses/LICENSE-2.0)
/bd{bind def}bind def
/ld{load def}bd
/GR/grestore ld
/M/moveto ld
/LJ/setlinejoin ld
/C/curveto ld
/f/fill ld
/LW/setlinewidth ld
/GC/setgray ld
/t/show ld
/N/newpath ld
/CT/concat ld
/cp/closepath ld
/S/stroke ld
/L/lineto ld
/CC/setcmykcolor ld
/A/ashow ld
/GS/gsave ld
/RC/setrgbcolor ld
/RM/rmoveto ld
/ML/setmiterlimit ld
/re {4 2 roll M
1 index 0 rlineto
0 exch rlineto
neg 0 rlineto
cp } bd
/_ctm matrix def
/_tm matrix def
/BT { _ctm currentmatrix pop matrix _tm copy pop 0 0 moveto } bd
/ET { _ctm setmatrix } bd
/iTm { _ctm setmatrix _tm concat } bd
/Tm { _tm astore pop iTm 0 0 moveto } bd
/ux 0.0 def
/uy 0.0 def
/F {
  /Tp exch def
  /Tf exch def
  Tf findfont Tp scalefont setfont
  /cf Tf def  /cs Tp def
} bd
/ULS {currentpoint /uy exch def /ux exch def} bd
/ULE {
  /Tcx currentpoint pop def
  gsave
  newpath
  cf findfont cs scalefont dup
  /FontMatrix get 0 get /Ts exch def /FontInfo get dup
  /UnderlinePosition get Ts mul /To exch def
  /UnderlineThickness get Ts mul /Tt exch def
  ux uy To add moveto  Tcx uy To add lineto
  Tt setlinewidth stroke
  grestore
} bd
/OLE {
  /Tcx currentpoint pop def
  gsave
  newpath
  cf findfont cs scalefont dup
  /FontMatrix get 0 get /Ts exch def /FontInfo get dup
  /UnderlinePosition get Ts mul /To exch def
  /UnderlineThickness get Ts mul /Tt exch def
  ux uy To add cs add moveto Tcx uy To add cs add lineto
  Tt setlinewidth stroke
  grestore
} bd
/SOE {
  /Tcx currentpoint pop def
  gsave
  newpath
  cf findfont cs scalefont dup
  /FontMatrix get 0 get /Ts exch def /FontInfo get dup
  /UnderlinePosition get Ts mul /To exch def
  /UnderlineThickness get Ts mul /Tt exch def
  ux uy To add cs 10 mul 26 idiv add moveto Tcx uy To add cs 10 mul 26 idiv add lineto
  Tt setlinewidth stroke
  grestore
} bd
/QT {
/Y22 exch store
/X22 exch store
/Y21 exch store
/X21 exch store
currentpoint
/Y21 load 2 mul add 3 div exch
/X21 load 2 mul add 3 div exch
/X21 load 2 mul /X22 load add 3 div
/Y21 load 2 mul /Y22 load add 3 div
/X22 load /Y22 load curveto
} bd
/SSPD {
dup length /d exch dict def
{
/v exch def
/k exch def
currentpagedevice k known {
/cpdv currentpagedevice k get def
v cpdv ne {
/upd false def
/nullv v type /nulltype eq def
/nullcpdv cpdv type /nulltype eq def
nullv nullcpdv or
{
/upd true def
} {
/sametype v type cpdv type eq def
sametype {
v type /arraytype eq {
/vlen v length def
/cpdvlen cpdv length def
vlen cpdvlen eq {
0 1 vlen 1 sub {
/i exch def
/obj v i get def
/cpdobj cpdv i get def
obj cpdobj ne {
/upd true def
exit
} if
} for
} {
/upd true def
} ifelse
} {
v type /dicttype eq {
v {
/dv exch def
/dk exch def
/cpddv cpdv dk get def
dv cpddv ne {
/upd true def
exit
} if
} forall
} {
/upd true def
} ifelse
} ifelse
} if
} ifelse
upd true eq {
d k v put
} if
} if
} if
} forall
d length 0 gt {
d setpagedevice
} if
} bd
%%EndResource
%%BeginResource: procset (Apache XML Graphics EPS ProcSet) 1.0 0
%%Version: 1.0 0
%%Copyright: (Copyright 2002-2003 The Apache Software Foundation. License terms: http://www.apache.org/licenses/LICENSE-2.0)
/BeginEPSF { %def
/b4_Inc_state save def         % Save state for cleanup
/dict_count countdictstack def % Count objects on dict stack
/op_count count 1 sub def      % Count objects on operand stack
userdict begin                 % Push userdict on dict stack
/showpage { } def              % Redefine showpage, { } = null proc
0 setgray 0 setlinecap         % Prepare graphics state
1 setlinewidth 0 setlinejoin
10 setmiterlimit [ ] 0 setdash newpath
/languagelevel where           % If level not equal to 1 then
{pop languagelevel             % set strokeadjust and
1 ne                           % overprint to their defaults.
{false setstrokeadjust false setoverprint
} if
} if
} bd
/EndEPSF { %def
count op_count sub {pop} repeat            % Clean up stacks
countdictstack dict_count sub {end} repeat
b4_Inc_state restore
} bd
%%EndResource
%FOPBeginFontDict
%%IncludeResource: font Courier-Bold
%%IncludeResource: font Helvetica
%%IncludeResource: font Courier-BoldOblique
%%IncludeResource: font Courier-Oblique
%%IncludeResource: font Times-Roman
%%IncludeResource: font Helvetica-BoldOblique
%%IncludeResource: font Helvetica-Bold
%%IncludeResource: font Helvetica-Oblique
%%IncludeResource: font Times-BoldItalic
%%IncludeResource: font Courier
%%IncludeResource: font Times-Italic
%%IncludeResource: font Times-Bold
%%IncludeResource: font Symbol
%%IncludeResource: font ZapfDingbats
%FOPEndFontDict
%%BeginResource: encoding WinAnsiEncoding
/WinAnsiEncoding [
/.notdef /.notdef /.notdef /.notdef /.notdef
/.notdef /.notdef /.notdef /.notdef /.notdef
/.notdef /.notdef /.notdef /.notdef /.notdef
/.notdef /.notdef /.notdef /.notdef /.notdef
/.notdef /.notdef /.notdef /.notdef /.notdef
/.notdef /.notdef /.notdef /.notdef /.notdef
/.notdef /.notdef /space /exclam /quotedbl
/numbersign /dollar /percent /ampersand /quotesingle
/parenleft /parenright /asterisk /plus /comma
/hyphen /period /slash /zero /one
/two /three /four /five /six
/seven /eight /nine /colon /semicolon
/less /equal /greater /question /at
/A /B /C /D /E
/F /G /H /I /J
/K /L /M /N /O
/P /Q /R /S /T
/U /V /W /X /Y
/Z /bracketleft /backslash /bracketright /asciicircum
/underscore /quoteleft /a /b /c
/d /e /f /g /h
/i /j /k /l /m
/n /o /p /q /r
/s /t /u /v /w
/x /y /z /braceleft /bar
/braceright /asciitilde /bullet /Euro /bullet
/quotesinglbase /florin /quotedblbase /ellipsis /dagger
/daggerdbl /circumflex /perthousand /Scaron /guilsinglleft
/OE /bullet /Zcaron /bullet /bullet
/quoteleft /quoteright /quotedblleft /quotedblright /bullet
/endash /emdash /asciitilde /trademark /scaron
/guilsinglright /oe /bullet /zcaron /Ydieresis
/space /exclamdown /cent /sterling /currency
/yen /brokenbar /section /dieresis /copyright
/ordfeminine /guillemotleft /logicalnot /sfthyphen /registered
/macron /degree /plusminus /twosuperior /threesuperior
/acute /mu /paragraph /middot /cedilla
/onesuperior /ordmasculine /guillemotright /onequarter /onehalf
/threequarters /questiondown /Agrave /Aacute /Acircumflex
/Atilde /Adieresis /Aring /AE /Ccedilla
/Egrave /Eacute /Ecircumflex /Edieresis /Igrave
/Iacute /Icircumflex /Idieresis /Eth /Ntilde
/Ograve /Oacute /Ocircumflex /Otilde /Odieresis
/multiply /Oslash /Ugrave /Uacute /Ucircumflex
/Udieresis /Yacute /Thorn /germandbls /agrave
/aacute /acircumflex /atilde /adieresis /aring
/ae /ccedilla /egrave /eacute /ecircumflex
/edieresis /igrave /iacute /icircumflex /idieresis
/eth /ntilde /ograve /oacute /ocircumflex
/otilde /odieresis /divide /oslash /ugrave
/uacute /ucircumflex /udieresis /yacute /thorn
/ydieresis
] def
%%EndResource
%FOPBeginFontReencode
/Courier-Bold findfont
dup length dict begin
  {1 index /FID ne {def} {pop pop} ifelse} forall
  /Encoding WinAnsiEncoding def
  currentdict
end
/Courier-Bold exch definefont pop
/Helvetica findfont
dup length dict begin
  {1 index /FID ne {def} {pop pop} ifelse} forall
  /Encoding WinAnsiEncoding def
  currentdict
end
/Helvetica exch definefont pop
/Courier-BoldOblique findfont
dup length dict begin
  {1 index /FID ne {def} {pop pop} ifelse} forall
  /Encoding WinAnsiEncoding def
  currentdict
end
/Courier-BoldOblique exch definefont pop
/Courier-Oblique findfont
dup length dict begin
  {1 index /FID ne {def} {pop pop} ifelse} forall
  /Encoding WinAnsiEncoding def
  currentdict
end
/Courier-Oblique exch definefont pop
/Times-Roman findfont
dup length dict begin
  {1 index /FID ne {def} {pop pop} ifelse} forall
  /Encoding WinAnsiEncoding def
  currentdict
end
/Times-Roman exch definefont pop
/Helvetica-BoldOblique findfont
dup length dict begin
  {1 index /FID ne {def} {pop pop} ifelse} forall
  /Encoding WinAnsiEncoding def
  currentdict
end
/Helvetica-BoldOblique exch definefont pop
/Helvetica-Bold findfont
dup length dict begin
  {1 index /FID ne {def} {pop pop} ifelse} forall
  /Encoding WinAnsiEncoding def
  currentdict
end
/Helvetica-Bold exch definefont pop
/Helvetica-Oblique findfont
dup length dict begin
  {1 index /FID ne {def} {pop pop} ifelse} forall
  /Encoding WinAnsiEncoding def
  currentdict
end
/Helvetica-Oblique exch definefont pop
/Times-BoldItalic findfont
dup length dict begin
  {1 index /FID ne {def} {pop pop} ifelse} forall
  /Encoding WinAnsiEncoding def
  currentdict
end
/Times-BoldItalic exch definefont pop
/Courier findfont
dup length dict begin
  {1 index /FID ne {def} {pop pop} ifelse} forall
  /Encoding WinAnsiEncoding def
  currentdict
end
/Courier exch definefont pop
/Times-Italic findfont
dup length dict begin
  {1 index /FID ne {def} {pop pop} ifelse} forall
  /Encoding WinAnsiEncoding def
  currentdict
end
/Times-Italic exch definefont pop
/Times-Bold findfont
dup length dict begin
  {1 index /FID ne {def} {pop pop} ifelse} forall
  /Encoding WinAnsiEncoding def
  currentdict
end
/Times-Bold exch definefont pop
%FOPEndFontReencode
%%EndProlog
%%Page: 1 1
%%PageBoundingBox: 0 0 751 596
%%BeginPageSetup
[1 0 0 -1 0 596] CT
%%EndPageSetup
GS
1 GC
N
0 0 751 596 re
f
GR
GS
1 GC
N
0 0 751 596 re
f
GR
GS
1 GC
N
98 530 M
680 530 L
680 45 L
98 45 L
cp
f
GR
GS
0.149 GC
2 setlinecap
10.0 ML
N
98 530 M
680 530 L
S
GR
GS
0.149 GC
2 setlinecap
10.0 ML
N
98 45 M
680 45 L
S
GR
GS
0.149 GC
2 setlinecap
10.0 ML
N
98 530 M
98 524.18 L
S
GR
GS
0.149 GC
2 setlinecap
10.0 ML
N
98 45 M
98 50.82 L
S
GR
GS
0.149 GC
2 setlinecap
10.0 ML
N
156.2 530 M
156.2 524.18 L
S
GR
GS
0.149 GC
2 setlinecap
10.0 ML
N
156.2 45 M
156.2 50.82 L
S
GR
GS
0.149 GC
2 setlinecap
10.0 ML
N
214.4 530 M
214.4 524.18 L
S
GR
GS
0.149 GC
2 setlinecap
10.0 ML
N
214.4 45 M
214.4 50.82 L
S
GR
GS
0.149 GC
2 setlinecap
10.0 ML
N
272.6 530 M
272.6 524.18 L
S
GR
GS
0.149 GC
2 setlinecap
10.0 ML
N
272.6 45 M
272.6 50.82 L
S
GR
GS
0.149 GC
2 setlinecap
10.0 ML
N
330.8 530 M
330.8 524.18 L
S
GR
GS
0.149 GC
2 setlinecap
10.0 ML
N
330.8 45 M
330.8 50.82 L
S
GR
GS
0.149 GC
2 setlinecap
10.0 ML
N
389 530 M
389 524.18 L
S
GR
GS
0.149 GC
2 setlinecap
10.0 ML
N
389 45 M
389 50.82 L
S
GR
GS
0.149 GC
2 setlinecap
10.0 ML
N
447.2 530 M
447.2 524.18 L
S
GR
GS
0.149 GC
2 setlinecap
10.0 ML
N
447.2 45 M
447.2 50.82 L
S
GR
GS
0.149 GC
2 setlinecap
10.0 ML
N
505.4 530 M
505.4 524.18 L
S
GR
GS
0.149 GC
2 setlinecap
10.0 ML
N
505.4 45 M
505.4 50.82 L
S
GR
GS
0.149 GC
2 setlinecap
10.0 ML
N
563.6 530 M
563.6 524.18 L
S
GR
GS
0.149 GC
2 setlinecap
10.0 ML
N
563.6 45 M
563.6 50.82 L
S
GR
GS
0.149 GC
2 setlinecap
10.0 ML
N
621.8 530 M
621.8 524.18 L
S
GR
GS
0.149 GC
2 setlinecap
10.0 ML
N
621.8 45 M
621.8 50.82 L
S
GR
GS
0.149 GC
2 setlinecap
10.0 ML
N
680 530 M
680 524.18 L
S
GR
GS
0.149 GC
2 setlinecap
10.0 ML
N
680 45 M
680 50.82 L
S
GR
GS
[1 0 0 1 98 534] CT
0.149 GC
/Helvetica 10 F
GS
[1 0 0 1 0 0] CT
-2.781 7.7 moveto 
1 -1 scale
(0) t 
GR
GR
GS
[1 0 0 1 156.2 534] CT
0.149 GC
/Helvetica 10 F
GS
[1 0 0 1 0 0] CT
-9.731 7.7 moveto 
1 -1 scale
(0.01) t 
GR
GR
GS
[1 0 0 1 214.39999 534] CT
0.149 GC
/Helvetica 10 F
GS
[1 0 0 1 0 0] CT
-9.731 7.7 moveto 
1 -1 scale
(0.02) t 
GR
GR
GS
[1 0 0 1 272.60001 534] CT
0.149 GC
/Helvetica 10 F
GS
[1 0 0 1 0 0] CT
-9.731 7.7 moveto 
1 -1 scale
(0.03) t 
GR
GR
GS
[1 0 0 1 330.79999 534] CT
0.149 GC
/Helvetica 10 F
GS
[1 0 0 1 0 0] CT
-9.731 7.7 moveto 
1 -1 scale
(0.04) t 
GR
GR
GS
[1 0 0 1 389 534] CT
0.149 GC
/Helvetica 10 F
GS
[1 0 0 1 0 0] CT
-9.731 7.7 moveto 
1 -1 scale
(0.05) t 
GR
GR
GS
[1 0 0 1 447.19998 534] CT
0.149 GC
/Helvetica 10 F
GS
[1 0 0 1 0 0] CT
-9.731 7.7 moveto 
1 -1 scale
(0.06) t 
GR
GR
GS
[1 0 0 1 505.39999 534] CT
0.149 GC
/Helvetica 10 F
GS
[1 0 0 1 0 0] CT
-9.731 7.7 moveto 
1 -1 scale
(0.07) t 
GR
GR
GS
[1 0 0 1 563.59998 534] CT
0.149 GC
/Helvetica 10 F
GS
[1 0 0 1 0 0] CT
-9.731 7.7 moveto 
1 -1 scale
(0.08) t 
GR
GR
GS
[1 0 0 1 621.80005 534] CT
0.149 GC
/Helvetica 10 F
GS
[1 0 0 1 0 0] CT
-9.731 7.7 moveto 
1 -1 scale
(0.09) t 
GR
GR
GS
[1 0 0 1 680 534] CT
0.149 GC
/Helvetica 10 F
GS
[1 0 0 1 0 0] CT
-6.951 7.7 moveto 
1 -1 scale
(0.1) t 
GR
GR
GS
0.149 GC
2 setlinecap
10.0 ML
N
98 530 M
98 45 L
S
GR
GS
0.149 GC
2 setlinecap
10.0 ML
N
680 530 M
680 45 L
S
GR
GS
0.149 GC
2 setlinecap
10.0 ML
N
98 530 M
103.82 530 L
S
GR
GS
0.149 GC
2 setlinecap
10.0 ML
N
680 530 M
674.18 530 L
S
GR
GS
0.149 GC
2 setlinecap
10.0 ML
N
98 481.5 M
103.82 481.5 L
S
GR
GS
0.149 GC
2 setlinecap
10.0 ML
N
680 481.5 M
674.18 481.5 L
S
GR
GS
0.149 GC
2 setlinecap
10.0 ML
N
98 433 M
103.82 433 L
S
GR
GS
0.149 GC
2 setlinecap
10.0 ML
N
680 433 M
674.18 433 L
S
GR
GS
0.149 GC
2 setlinecap
10.0 ML
N
98 384.5 M
103.82 384.5 L
S
GR
GS
0.149 GC
2 setlinecap
10.0 ML
N
680 384.5 M
674.18 384.5 L
S
GR
GS
0.149 GC
2 setlinecap
10.0 ML
N
98 336 M
103.82 336 L
S
GR
GS
0.149 GC
2 setlinecap
10.0 ML
N
680 336 M
674.18 336 L
S
GR
GS
0.149 GC
2 setlinecap
10.0 ML
N
98 287.5 M
103.82 287.5 L
S
GR
GS
0.149 GC
2 setlinecap
10.0 ML
N
680 287.5 M
674.18 287.5 L
S
GR
GS
0.149 GC
2 setlinecap
10.0 ML
N
98 239 M
103.82 239 L
S
GR
GS
0.149 GC
2 setlinecap
10.0 ML
N
680 239 M
674.18 239 L
S
GR
GS
0.149 GC
2 setlinecap
10.0 ML
N
98 190.5 M
103.82 190.5 L
S
GR
GS
0.149 GC
2 setlinecap
10.0 ML
N
680 190.5 M
674.18 190.5 L
S
GR
GS
0.149 GC
2 setlinecap
10.0 ML
N
98 142 M
103.82 142 L
S
GR
GS
0.149 GC
2 setlinecap
10.0 ML
N
680 142 M
674.18 142 L
S
GR
GS
0.149 GC
2 setlinecap
10.0 ML
N
98 93.5 M
103.82 93.5 L
S
GR
GS
0.149 GC
2 setlinecap
10.0 ML
N
680 93.5 M
674.18 93.5 L
S
GR
GS
0.149 GC
2 setlinecap
10.0 ML
N
98 45 M
103.82 45 L
S
GR
GS
0.149 GC
2 setlinecap
10.0 ML
N
680 45 M
674.18 45 L
S
GR
GS
[1 0 0 1 94 530] CT
0.149 GC
/Helvetica 10 F
GS
[1 0 0 1 0 0] CT
-5.562 3.2 moveto 
1 -1 scale
(0) t 
GR
GR
GS
[1 0 0 1 94 481.5] CT
0.149 GC
/Helvetica 10 F
GS
[1 0 0 1 0 0] CT
-13.901 3.2 moveto 
1 -1 scale
(0.1) t 
GR
GR
GS
[1 0 0 1 94 433] CT
0.149 GC
/Helvetica 10 F
GS
[1 0 0 1 0 0] CT
-13.901 3.2 moveto 
1 -1 scale
(0.2) t 
GR
GR
GS
[1 0 0 1 94 384.5] CT
0.149 GC
/Helvetica 10 F
GS
[1 0 0 1 0 0] CT
-13.901 3.2 moveto 
1 -1 scale
(0.3) t 
GR
GR
GS
[1 0 0 1 94 336] CT
0.149 GC
/Helvetica 10 F
GS
[1 0 0 1 0 0] CT
-13.901 3.2 moveto 
1 -1 scale
(0.4) t 
GR
GR
GS
[1 0 0 1 94 287.5] CT
0.149 GC
/Helvetica 10 F
GS
[1 0 0 1 0 0] CT
-13.901 3.2 moveto 
1 -1 scale
(0.5) t 
GR
GR
GS
[1 0 0 1 94 238.99998] CT
0.149 GC
/Helvetica 10 F
GS
[1 0 0 1 0 0] CT
-13.901 3.2 moveto 
1 -1 scale
(0.6) t 
GR
GR
GS
[1 0 0 1 94 190.5] CT
0.149 GC
/Helvetica 10 F
GS
[1 0 0 1 0 0] CT
-13.901 3.2 moveto 
1 -1 scale
(0.7) t 
GR
GR
GS
[1 0 0 1 94 142] CT
0.149 GC
/Helvetica 10 F
GS
[1 0 0 1 0 0] CT
-13.901 3.2 moveto 
1 -1 scale
(0.8) t 
GR
GR
GS
[1 0 0 1 94 93.50002] CT
0.149 GC
/Helvetica 10 F
GS
[1 0 0 1 0 0] CT
-13.901 3.2 moveto 
1 -1 scale
(0.9) t 
GR
GR
GS
[1 0 0 1 94 45] CT
0.149 GC
/Helvetica 10 F
GS
[1 0 0 1 0 0] CT
-5.562 3.2 moveto 
1 -1 scale
(1) t 
GR
GR
GS
0 0.447 0.741 RC
2 setlinecap
10.0 ML
N
98 521.949 M
243.5 499.251 L
389 392.551 L
534.5 94.664 L
680 45 L
S
GR
%%Trailer
%%Pages: 1
%%EOF
